…
```
Warning: select_() is deprecated. 
Please use select() instead

The 'programming' vignette or the tidyeval book can help you
to program with select() : https://tidyeval.tidyverse.org
This warning is displayed once per session.
```

```r
d9_long %>% print()
```

```
# A tibble: 35,632 x 6
   StudentID school_name school_state Tx1                    prosocial wave 
       <dbl> <chr>       <chr>        <fct>                      <dbl> <chr>
 1 101101125 Cascade     WA           Intervention Group (1)       1.8 1    
 2 101101125 Cascade     WA           Intervention Group (1)       1.6 2    
 3 101101125 Cascade     WA           Intervention Group (1)       2   3    
 4 101101125 Cascade     WA           Intervention Group (1)       2   4    
 5 101101189 Cascade     WA           Intervention Group (1)       1   1    
 6 101101189 Cascade     WA           Intervention Group (1)       1.4 2    
 7 101101189 Cascade     WA           Intervention Group (1)      NA   3    
 8 101101189 Cascade     WA           Intervention Group (1)      NA   4    
 9 101101192 Cascade     WA           Intervention Group (1)       1.8 1    
10 101101192 Cascade     WA           Intervention Group (1)       2   2    
# … with 35,622 more rows
```
…
### School

```r
d9_long_2 <- d9_long %>% 
  group_by(school_name, wave) %>% 
  mutate(
    sm_prosocial = mean(x = prosocial, na.rm = TRUE)
  )

d9_long_2 %>% print()
```

```
# A tibble: 35,632 x 7
# Groups:   school_name, wave [240]
   StudentID school_name school_state Tx1                    prosocial wave  sm_prosocial
       <dbl> <chr>       <chr>        <fct>                      <dbl> <chr>        <dbl>
 1 101101125 Cascade     WA           Intervention Group (1)       1.8 1             1.22
 2 101101125 Cascade     WA           Intervention Group (1)       1.6 2             1.43
 3 101101125 Cascade     WA           Intervention Group (1)       2   3             1.44
 4 101101125 Cascade     WA           Intervention Group (1)       2   4             1.47
 5 101101189 Cascade     WA           Intervention Group (1)       1   1             1.22
 6 101101189 Cascade     WA           Intervention Group (1)       1.4 2             1.43
 7 101101189 Cascade     WA           Intervention Group (1)      NA   3             1.44
 8 101101189 Cascade     WA           Intervention Group (1)      NA   4             1.47
 9 101101192 Cascade     WA           Intervention Group (1)       1.8 1             1.22
10 101101192 Cascade     WA           Intervention Group (1)       2   2             1.43
# … with 35,622 more rows
```
…
